{
    "pattern" : {
        "promptDevice" :   "\\A[^\\# ]+>[ ]?$",
        "promptPriv" :     "\\A[^\\# ]+#[ ]?$",
        "promptProxy" :    "$(proxy/proxy-prompt)",
        "promptLogin" :    "^.*([Ll]ogin|[Uu]ser|[Uu]sername):[ ]?$",
        "promptPassword" : "^.*[Pp]assword:[ ]?$",
        "promptIgnore" :   "([Pp]assword OK)|([Ll]ast [Ll]ogin)|(User Access Verification)",
        "errorLogin" :     "(Authentication failed)|(Bad passwords)|(Login invalid)|(Access denied)|(Permission denied)|(Request Denied)|(telnet: )|(ssh: )",
        "errorEnable" :    "(Unknown command)|(Access denied)"
    },
    "command" : {
        "sshCmd" : "ssh -p $(proxy/remote-port) $(proxy-remote-name)@$(proxy/remote-address)",
        "telnetCmd" : "telnet $(proxy/remote-address) $(proxy/remote-port)"
    },
    "state": {
        "new" : [
            {"expect": null, "action": "connect($(connection/terminal/width),$(connection/terminal/height))", "nextState": "proxylogin"}
        ],
        "proxylogin" : [
            {"expect": "$promptIgnore",    "action": null,                 "nextState": "proxylogin"},
            {"expect": "$promptLogin",     "action": "sendUsername()",     "nextState": "proxylogin"},
            {"expect": "$promptPassword",  "action": "sendPassword()",     "nextState": "proxylogin"},
            {"expect": "$promptProxy",     "action": null,                 "nextState": "proxyjump"},
            {"expect": "$promptDevice",    "action": "enable",             "nextState": "proxyenable"},
            {"expect": "$promptPriv",      "action": null,                 "nextState": "proxyjump"},
            {"expect": "$errorLogin",      "action": "reportError()",      "nextState": "invalid"}
        ],
        "proxyenable" : [
            {"expect": "$promptPriv",      "action": null,                       "nextState": "proxyjump"},
            {"expect": "$promptPassword",  "action": "sendSecondaryPassword()",  "nextState": "proxyenable"},
            {"expect": "$errorEnable",     "action": "reportError()",            "nextState": "invalid"}
        ],
        "proxyjump" : [
            {"expect": null, "action": "ifdef($(proxy/remote-command),noecho($(proxy/remote-command)),,$$(proxy/remote-connection)Cmd)", "nextState": "proxy2"}
        ],
        "proxy2" : [
            {"expect": "$(proxy/proxy-prompt2)",  "action": null,                "nextState": "newline2"},
            {"expect": "$errorLogin",      "action": "reportError()",            "nextState": "invalid"}
        ],
        "newline2" : [
            {"expect": null,               "action":  "matches($(proxy/send-login-newline),true,\r\n)", "nextState": "login"}
        ],
        "login" : [
            {"expect": "$promptIgnore",    "action": null,                       "nextState": "login"},
            {"expect": "$promptLogin",     "action": "sendProxyUsername()",      "nextState": "login"},
            {"expect": "$promptPassword",  "action": "sendProxyPassword()",      "nextState": "login"},
            {"expect": "$errorLogin",      "action": "reportError()",            "nextState": "invalid"},
            {"expect": "$promptDevice",    "action": "enable",                   "nextState": "enable"},
            {"expect": "$promptPriv",      "action": null,                       "nextState": "end"}
        ],
        "enable" : [
            {"expect": "$promptPriv",      "action": null,                       "nextState": "end"},
            {"expect": "$promptPassword",  "action": "sendProxySecPassword()",   "nextState": "enable"},
            {"expect": "$errorEnable",     "action": "reportError()",            "nextState": "invalid"}
        ]
    }
}
